,estimator,min_score,mean_score,max_score,std_score,alpha,epsilon,n_estimators,C,kernel,gamma,learning_rate,penalty
3,Ridge,-0.0032716653628488412,-0.0003367258899049652,0.002144337769306004,0.002234244827318104,1,,,,,,,
2,Ridge,-0.0032724604505820487,-0.00033699402233881387,0.0021445453890893695,0.002234655136585885,0.75,,,,,,,
1,Ridge,-0.0032732558584629423,-0.00033726228845254447,0.002144753043244907,0.002235065591191553,0.5,,,,,,,
0,LinearRegression,-0.00316193758794725,-0.0007393140811531677,0.0006703356929832482,0.0017206910360325694,,,,,,,,
31,SGDRegressor,-0.004779503293759202,-0.0009395865486935273,0.0021080043182396535,0.0028670862676480877,,,,,,,invscaling,l2
32,SGDRegressor,-0.0038346204416890295,-0.0021280494620924038,-8.227711355135447e-05,0.0015505511470818281,,,,,,,invscaling,elasticnet
13,XGBRegressor,-0.01842359176854025,-0.015125209180603338,-0.011089566957593222,0.003039149421469528,,,5,,,,,
14,XGBRegressor,-0.03416440339385285,-0.02965574040258619,-0.02565734691228938,0.0034916838075483266,,,20,,,,,
11,HuberRegressor,-0.04874887852491128,-0.04626901134521141,-0.044746986747444595,0.0017685928980335386,1,1.5,,,,,,
8,HuberRegressor,-0.04874910133938015,-0.04626927536526574,-0.044747035881240294,0.0017685890604866772,0.75,1.5,,,,,,
5,HuberRegressor,-0.04874942829025164,-0.04626967309697886,-0.044747271602938454,0.0017685604535001228,0.5,1.5,,,,,,
15,XGBRegressor,-0.08630668779813822,-0.06895349297126178,-0.05239222603073301,0.013856840466621017,,,50,,,,,
10,HuberRegressor,-0.07940623713703276,-0.07454084773384917,-0.0711658369687096,0.003525334035906252,1,1.35,,,,,,
7,HuberRegressor,-0.07940658468926198,-0.07454158558714497,-0.07116681337100172,0.003525056970987885,0.75,1.35,,,,,,
4,HuberRegressor,-0.07940709197398155,-0.0745424004344204,-0.07116779074864055,0.003524843175585042,0.5,1.35,,,,,,
16,XGBRegressor,-0.13393992449219994,-0.11583764129738998,-0.09897604590114328,0.014300878322505586,,,100,,,,,
29,SVR,-0.12999620522043043,-0.12174610267960413,-0.11384064662213422,0.0065999800153542405,,,,100,rbf,0.001,,
24,SVR,-0.1330030660185615,-0.12219256402766614,-0.1114190650283049,0.008811670352545205,,,,1,rbf,0.0001,,
27,SVR,-0.13138889443282742,-0.12250810213397571,-0.1137503092022003,0.007201447487264863,,,,50,rbf,0.001,,
26,SVR,-0.13343091615374703,-0.12290163170116568,-0.1130481721901404,0.00833493120888259,,,,10,rbf,0.0001,,
23,SVR,-0.13352147251170687,-0.12308400539059001,-0.11330981229957793,0.008264694044020329,,,,1,rbf,0.001,,
22,SVR,-0.132891079477786,-0.12337143396107586,-0.1141750669978423,0.007644198783160361,,,,100,linear,,,
20,SVR,-0.13315044795381326,-0.12338905224637971,-0.11401577137098973,0.007816518271133804,,,,10,linear,,,
19,SVR,-0.13317834839167264,-0.12341689032012708,-0.11397521999661198,0.007842904784671688,,,,1,linear,,,
21,SVR,-0.13310236747157433,-0.12345991068506712,-0.11409563927623623,0.007761957205977104,,,,50,linear,,,
28,SVR,-0.13318007593317982,-0.12348471502962506,-0.11452133279890164,0.007634964240075749,,,,50,rbf,0.0001,,
30,SVR,-0.13319127580742518,-0.12350776670301637,-0.11429616557112499,0.007721110479776781,,,,100,rbf,0.0001,,
25,SVR,-0.13297257224699877,-0.12357988579331858,-0.11474014007185573,0.007453621193545525,,,,10,rbf,0.001,,
6,HuberRegressor,-0.13352120187556205,-0.12576806359512038,-0.11672304511841536,0.006918392560922482,0.5,1,,,,,,
12,HuberRegressor,-0.1334745939997597,-0.1257833652653718,-0.1167803889541641,0.006878208672082522,1,1,,,,,,
9,HuberRegressor,-0.13370244575782442,-0.12581661476623376,-0.11677557169006825,0.006958479366771639,0.75,1,,,,,,
17,XGBRegressor,-0.2504749519704752,-0.22010038646904762,-0.18851509521463194,0.02530948906290373,,,250,,,,,
18,XGBRegressor,-0.43056421183633464,-0.39298389671629524,-0.3396451572133057,0.038754049918782243,,,1000,,,,,
34,SGDRegressor,-1777465046.0169826,-1281304150.4626696,-662048074.9472128,463611239.67886764,,,,,,,optimal,elasticnet
33,SGDRegressor,-4473713222.661671,-3564071488.4034386,-2633453107.4153843,751429454.5387433,,,,,,,optimal,l2
